4o_ano/AAD/1st_assignment_hamming_codes/encoder/simulation/qsim/enco.msim.vcd
$comment
	File created using the following command:
		vcd file enco.msim.vcd -direction
$end
$date
	Wed Dec 08 22:17:22 2021
$end
$version
	ModelSim Version 2020.1
$end
$timescale
	1ps
$end

$scope module hammingcodebitserialencoder_vhd_vec_tst $end
$var wire 1 ! clk $end
$var wire 1 " d_out $end
$var wire 1 # rst $end
$var wire 1 $ y $end

$scope module i1 $end
$var wire 1 % gnd $end
$var wire 1 & vcc $end
$var wire 1 ' unknown $end
$var wire 1 ( devoe $end
$var wire 1 ) devclrn $end
$var wire 1 * devpor $end
$var wire 1 + ww_devoe $end
$var wire 1 , ww_devclrn $end
$var wire 1 - ww_devpor $end
$var wire 1 . ww_y $end
$var wire 1 / ww_clk $end
$var wire 1 0 ww_rst $end
$var wire 1 1 ww_d_out $end
$var wire 1 2 \d_out~output_o\ $end
$var wire 1 3 \clk~input_o\ $end
$var wire 1 4 \stateCounter|ff0|Q~0_combout\ $end
$var wire 1 5 \rst~input_o\ $end
$var wire 1 6 \stateCounter|ff0|Q~q\ $end
$var wire 1 7 \stateCounter|ff1|Q~0_combout\ $end
$var wire 1 8 \stateCounter|ff1|Q~q\ $end
$var wire 1 9 \stateCounter|ff2|Q~0_combout\ $end
$var wire 1 : \stateCounter|ff2|Q~q\ $end
$var wire 1 ; \stateCounter|ff3|Q~0_combout\ $end
$var wire 1 < \stateCounter|ff3|Q~q\ $end
$var wire 1 = \y~input_o\ $end
$var wire 1 > \and_c|y~0_combout\ $end
$var wire 1 ? \and_c|y~1_combout\ $end
$var wire 1 @ \and_d|y~0_combout\ $end
$var wire 1 A \and_c|y~2_combout\ $end
$var wire 1 B \ff_x14|Q~0_combout\ $end
$var wire 1 C \control|comp_rst~0_combout\ $end
$var wire 1 D \ff_x14|Q~q\ $end
$var wire 1 E \and_a|y~0_combout\ $end
$var wire 1 F \and_a|y~1_combout\ $end
$var wire 1 G \ff_x12|Q~0_combout\ $end
$var wire 1 H \ff_x12|Q~q\ $end
$var wire 1 I \and_d|y~1_combout\ $end
$var wire 1 J \and_d|y~2_combout\ $end
$var wire 1 K \ff_x15|Q~0_combout\ $end
$var wire 1 L \ff_x15|Q~q\ $end
$var wire 1 M \and_b|y~0_combout\ $end
$var wire 1 N \and_b|y~1_combout\ $end
$var wire 1 O \ff_x13|Q~0_combout\ $end
$var wire 1 P \ff_x13|Q~q\ $end
$var wire 1 Q \multiplexer2_1|out1~0_combout\ $end
$var wire 1 R \multiplexer2_1|out1~1_combout\ $end
$var wire 1 S \multiplexer2_1|out1~2_combout\ $end
$var wire 1 T \ff_out|Q~q\ $end
$var wire 1 U \control|ALT_INV_comp_rst~0_combout\ $end
$var wire 1 V \ff_out|ALT_INV_Q~q\ $end
$upscope $end
$upscope $end
$enddefinitions $end
#0
$dumpvars
0!
1"
1#
0$
0%
1&
x'
1(
1)
1*
1+
1,
1-
0.
0/
10
11
12
03
14
15
06
07
08
09
0:
0;
0<
0=
0>
0?
0@
0A
0B
1C
0D
0E
0F
0G
0H
0I
0J
0K
0L
0M
0N
0O
0P
0Q
0R
1S
0T
0U
1V
$end
#10000
1!
1$
1/
1.
1=
13
16
1T
1>
1@
1E
1M
0S
0V
04
17
0C
1F
0M
1N
1U
1O
1G
02
01
0"
#20000
0!
0/
03
#30000
1!
1/
13
06
18
1H
1P
0T
1V
0O
0G
14
1?
0F
1M
0N
1Q
1R
0R
1O
1B
12
11
1"
#40000
0!
0/
03
#50000
1!
1/
13
16
1D
0H
1G
0B
04
07
19
0?
1F
1I
0Q
1R
0R
1K
1B
#60000
0!
0/
03
#70000
1!
1/
13
06
08
1:
1H
1L
0K
0>
0G
14
1A
0E
0F
0I
0M
1N
1R
0O
1G
0B
1K
#80000
0!
0/
03
#90000
1!
1/
13
16
0D
0P
1O
1B
04
17
0A
1E
1J
0R
0K
0B
#100000
0!
0/
03
#110000
1!
1/
13
06
18
0L
1P
0O
1K
0G
14
1?
1A
0E
0N
1Q
1R
0R
1O
1G
1B
#120000
0!
0/
03
#130000
1!
0$
1/
0.
0=
13
16
1D
1L
0@
1S
0K
0B
04
07
09
1;
0?
0A
1I
0J
1R
1K
1B
#140000
0!
0/
03
#150000
1!
1/
13
06
08
0:
1<
1T
0V
14
0Q
02
01
0"
#160000
0!
0/
03
#170000
1!
1/
13
16
04
17
1?
1Q
0R
1R
#180000
0!
0/
03
#190000
1!
1/
13
06
18
14
#200000
0!
0/
03
#210000
1!
1/
13
16
04
07
19
#220000
0!
0/
03
#230000
1!
1/
13
06
08
1:
0S
14
0?
0Q
#240000
0!
0/
03
#250000
1!
1/
13
16
0T
1V
04
17
1?
1Q
0R
1S
1R
12
0S
11
1"
#260000
0!
0/
03
#270000
1!
1/
13
06
18
14
#280000
0!
0/
03
#290000
1!
1/
13
16
04
07
09
0;
#300000
0!
0/
03
#310000
1!
1/
13
06
08
0:
0<
1S
14
0?
1C
0I
0Q
0U
0D
0H
0L
0P
0O
0K
0G
0B
0R
#320000
0!
0/
03
#330000
1!
1/
13
16
1T
0V
04
17
0C
1U
02
01
0"
#340000
0!
0/
03
#350000
1!
1/
13
06
18
14
1?
1Q
#360000
0!
0/
03
#370000
1!
1/
13
16
04
07
19
0?
1I
0Q
1R
0R
#380000
0!
0/
03
#390000
1!
1/
13
06
08
1:
14
0I
#400000
0!
0/
03
#410000
1!
1/
13
16
04
17
#420000
0!
0/
03
#430000
1!
1/
13
06
18
14
1?
1Q
#440000
0!
0/
03
#450000
1!
1/
13
16
04
07
09
1;
0?
1I
0Q
1R
0R
#460000
0!
0/
03
#470000
1!
1/
13
06
08
0:
1<
14
#480000
0!
0/
03
#490000
1!
1/
13
16
04
17
1?
#500000
0!
0/
03
#510000
1!
1/
13
06
18
14
1Q
#520000
0!
0/
03
#530000
1!
1/
13
16
04
07
19
0Q
1R
0R
#540000
0!
0/
03
#550000
1!
1/
13
06
08
1:
14
0?
#560000
0!
0/
03
#570000
1!
1/
13
16
04
17
1?
#580000
0!
0/
03
#590000
1!
1/
13
06
18
14
1Q
#600000
0!
0/
03
#610000
1!
1/
13
16
04
07
09
0;
0Q
1R
0S
0R
1S
#620000
0!
0/
03
#630000
1!
1/
13
06
08
0:
0<
14
0?
1C
0I
0U
#640000
0!
0/
03
#650000
1!
1/
13
16
04
17
0C
1U
#660000
0!
0/
03
#670000
1!
1/
13
06
18
14
1?
1Q
#680000
0!
0/
03
#690000
1!
1/
13
16
04
07
19
0?
1I
0Q
1R
0R
#700000
0!
0/
03
#710000
1!
1/
13
06
08
1:
14
0I
#720000
0!
0/
03
#730000
1!
1/
13
16
04
17
#740000
0!
0/
03
#750000
1!
1/
13
06
18
14
1?
1Q
#760000
0!
0/
03
#770000
1!
1/
13
16
04
07
09
1;
0?
1I
0Q
1R
0R
#780000
0!
0/
03
#790000
1!
1/
13
06
08
0:
1<
14
#800000
0!
0/
03
#810000
1!
1/
13
16
04
17
1?
#820000
0!
0/
03
#830000
1!
1/
13
06
18
14
1Q
#840000
0!
0/
03
#850000
1!
1/
13
16
04
07
19
0Q
1R
0R
#860000
0!
0/
03
#870000
1!
1/
13
06
08
1:
14
0?
#880000
0!
0/
03
#890000
1!
1/
13
16
04
17
1?
#900000
0!
0/
03
#910000
1!
1/
13
06
18
14
1Q
#920000
0!
0/
03
#930000
1!
1/
13
16
04
07
09
0;
0Q
1R
0S
0R
1S
#940000
0!
0/
03
#950000
1!
1/
13
06
08
0:
0<
14
0?
1C
0I
0U
#960000
0!
0/
03
#970000
1!
1/
13
16
04
17
0C
1U
#980000
0!
0#
0/
00
05
03
06
14
07
1C
0U
