1o_ano/LSD/lsd_timer/vhdl_code/simulation/qsim/Projeto.msim.vcd
$comment
	File created using the following command:
		vcd file Projeto.msim.vcd -direction
$end
$date
	Wed Apr 11 16:15:00 2018
$end
$version
	ModelSim Version 10.5b
$end
$timescale
	1ps
$end

$scope module basicwatch_vhd_vec_tst $end
$var wire 1 ! CLOCK_50 $end
$var wire 1 " HEX2 [6] $end
$var wire 1 # HEX2 [5] $end
$var wire 1 $ HEX2 [4] $end
$var wire 1 % HEX2 [3] $end
$var wire 1 & HEX2 [2] $end
$var wire 1 ' HEX2 [1] $end
$var wire 1 ( HEX2 [0] $end
$var wire 1 ) HEX3 [6] $end
$var wire 1 * HEX3 [5] $end
$var wire 1 + HEX3 [4] $end
$var wire 1 , HEX3 [3] $end
$var wire 1 - HEX3 [2] $end
$var wire 1 . HEX3 [1] $end
$var wire 1 / HEX3 [0] $end
$var wire 1 0 HEX4 [6] $end
$var wire 1 1 HEX4 [5] $end
$var wire 1 2 HEX4 [4] $end
$var wire 1 3 HEX4 [3] $end
$var wire 1 4 HEX4 [2] $end
$var wire 1 5 HEX4 [1] $end
$var wire 1 6 HEX4 [0] $end
$var wire 1 7 HEX5 [6] $end
$var wire 1 8 HEX5 [5] $end
$var wire 1 9 HEX5 [4] $end
$var wire 1 : HEX5 [3] $end
$var wire 1 ; HEX5 [2] $end
$var wire 1 < HEX5 [1] $end
$var wire 1 = HEX5 [0] $end
$var wire 1 > KEY [2] $end
$var wire 1 ? KEY [1] $end
$var wire 1 @ KEY [0] $end
$var wire 1 A LEDG [8] $end
$var wire 1 B SW [1] $end
$var wire 1 C SW [0] $end

$scope module i1 $end
$var wire 1 D gnd $end
$var wire 1 E vcc $end
$var wire 1 F unknown $end
$var wire 1 G devoe $end
$var wire 1 H devclrn $end
$var wire 1 I devpor $end
$var wire 1 J ww_devoe $end
$var wire 1 K ww_devclrn $end
$var wire 1 L ww_devpor $end
$var wire 1 M ww_SW [1] $end
$var wire 1 N ww_SW [0] $end
$var wire 1 O ww_CLOCK_50 $end
$var wire 1 P ww_KEY [2] $end
$var wire 1 Q ww_KEY [1] $end
$var wire 1 R ww_KEY [0] $end
$var wire 1 S ww_HEX2 [6] $end
$var wire 1 T ww_HEX2 [5] $end
$var wire 1 U ww_HEX2 [4] $end
$var wire 1 V ww_HEX2 [3] $end
$var wire 1 W ww_HEX2 [2] $end
$var wire 1 X ww_HEX2 [1] $end
$var wire 1 Y ww_HEX2 [0] $end
$var wire 1 Z ww_HEX3 [6] $end
$var wire 1 [ ww_HEX3 [5] $end
$var wire 1 \ ww_HEX3 [4] $end
$var wire 1 ] ww_HEX3 [3] $end
$var wire 1 ^ ww_HEX3 [2] $end
$var wire 1 _ ww_HEX3 [1] $end
$var wire 1 ` ww_HEX3 [0] $end
$var wire 1 a ww_HEX4 [6] $end
$var wire 1 b ww_HEX4 [5] $end
$var wire 1 c ww_HEX4 [4] $end
$var wire 1 d ww_HEX4 [3] $end
$var wire 1 e ww_HEX4 [2] $end
$var wire 1 f ww_HEX4 [1] $end
$var wire 1 g ww_HEX4 [0] $end
$var wire 1 h ww_HEX5 [6] $end
$var wire 1 i ww_HEX5 [5] $end
$var wire 1 j ww_HEX5 [4] $end
$var wire 1 k ww_HEX5 [3] $end
$var wire 1 l ww_HEX5 [2] $end
$var wire 1 m ww_HEX5 [1] $end
$var wire 1 n ww_HEX5 [0] $end
$var wire 1 o ww_LEDG [8] $end
$var wire 1 p \CLOCK_50~inputclkctrl_INCLK_bus\ [3] $end
$var wire 1 q \CLOCK_50~inputclkctrl_INCLK_bus\ [2] $end
$var wire 1 r \CLOCK_50~inputclkctrl_INCLK_bus\ [1] $end
$var wire 1 s \CLOCK_50~inputclkctrl_INCLK_bus\ [0] $end
$var wire 1 t \clk_div_4hz|clkOut~clkctrl_INCLK_bus\ [3] $end
$var wire 1 u \clk_div_4hz|clkOut~clkctrl_INCLK_bus\ [2] $end
$var wire 1 v \clk_div_4hz|clkOut~clkctrl_INCLK_bus\ [1] $end
$var wire 1 w \clk_div_4hz|clkOut~clkctrl_INCLK_bus\ [0] $end
$var wire 1 x \KEY[0]~input_o\ $end
$var wire 1 y \HEX2[0]~output_o\ $end
$var wire 1 z \HEX2[1]~output_o\ $end
$var wire 1 { \HEX2[2]~output_o\ $end
$var wire 1 | \HEX2[3]~output_o\ $end
$var wire 1 } \HEX2[4]~output_o\ $end
$var wire 1 ~ \HEX2[5]~output_o\ $end
$var wire 1 !! \HEX2[6]~output_o\ $end
$var wire 1 "! \HEX3[0]~output_o\ $end
$var wire 1 #! \HEX3[1]~output_o\ $end
$var wire 1 $! \HEX3[2]~output_o\ $end
$var wire 1 %! \HEX3[3]~output_o\ $end
$var wire 1 &! \HEX3[4]~output_o\ $end
$var wire 1 '! \HEX3[5]~output_o\ $end
$var wire 1 (! \HEX3[6]~output_o\ $end
$var wire 1 )! \HEX4[0]~output_o\ $end
$var wire 1 *! \HEX4[1]~output_o\ $end
$var wire 1 +! \HEX4[2]~output_o\ $end
$var wire 1 ,! \HEX4[3]~output_o\ $end
$var wire 1 -! \HEX4[4]~output_o\ $end
$var wire 1 .! \HEX4[5]~output_o\ $end
$var wire 1 /! \HEX4[6]~output_o\ $end
$var wire 1 0! \HEX5[0]~output_o\ $end
$var wire 1 1! \HEX5[1]~output_o\ $end
$var wire 1 2! \HEX5[2]~output_o\ $end
$var wire 1 3! \HEX5[3]~output_o\ $end
$var wire 1 4! \HEX5[4]~output_o\ $end
$var wire 1 5! \HEX5[5]~output_o\ $end
$var wire 1 6! \HEX5[6]~output_o\ $end
$var wire 1 7! \LEDG[8]~output_o\ $end
$var wire 1 8! \CLOCK_50~input_o\ $end
$var wire 1 9! \CLOCK_50~inputclkctrl_outclk\ $end
$var wire 1 :! \clk_div_4hz|Add0~0_combout\ $end
$var wire 1 ;! \clk_div_4hz|Add0~1\ $end
$var wire 1 <! \clk_div_4hz|Add0~2_combout\ $end
$var wire 1 =! \clk_div_4hz|Add0~3\ $end
$var wire 1 >! \clk_div_4hz|Add0~4_combout\ $end
$var wire 1 ?! \clk_div_4hz|Add0~5\ $end
$var wire 1 @! \clk_div_4hz|Add0~6_combout\ $end
$var wire 1 A! \clk_div_4hz|Add0~7\ $end
$var wire 1 B! \clk_div_4hz|Add0~8_combout\ $end
$var wire 1 C! \clk_div_4hz|Add0~9\ $end
$var wire 1 D! \clk_div_4hz|Add0~10_combout\ $end
$var wire 1 E! \clk_div_4hz|s_divCounter~11_combout\ $end
$var wire 1 F! \clk_div_4hz|Add0~11\ $end
$var wire 1 G! \clk_div_4hz|Add0~12_combout\ $end
$var wire 1 H! \clk_div_4hz|Equal0~5_combout\ $end
$var wire 1 I! \clk_div_4hz|Equal0~10_combout\ $end
$var wire 1 J! \clk_div_4hz|Add0~13\ $end
$var wire 1 K! \clk_div_4hz|Add0~14_combout\ $end
$var wire 1 L! \clk_div_4hz|Add0~15\ $end
$var wire 1 M! \clk_div_4hz|Add0~16_combout\ $end
$var wire 1 N! \clk_div_4hz|Add0~17\ $end
$var wire 1 O! \clk_div_4hz|Add0~18_combout\ $end
$var wire 1 P! \clk_div_4hz|Add0~19\ $end
$var wire 1 Q! \clk_div_4hz|Add0~20_combout\ $end
$var wire 1 R! \clk_div_4hz|s_divCounter~10_combout\ $end
$var wire 1 S! \clk_div_4hz|Add0~21\ $end
$var wire 1 T! \clk_div_4hz|Add0~22_combout\ $end
$var wire 1 U! \clk_div_4hz|s_divCounter~9_combout\ $end
$var wire 1 V! \clk_div_4hz|Add0~23\ $end
$var wire 1 W! \clk_div_4hz|Add0~24_combout\ $end
$var wire 1 X! \clk_div_4hz|s_divCounter~8_combout\ $end
$var wire 1 Y! \clk_div_4hz|Add0~25\ $end
$var wire 1 Z! \clk_div_4hz|Add0~27\ $end
$var wire 1 [! \clk_div_4hz|Add0~28_combout\ $end
$var wire 1 \! \clk_div_4hz|Add0~29\ $end
$var wire 1 ]! \clk_div_4hz|Add0~30_combout\ $end
$var wire 1 ^! \clk_div_4hz|s_divCounter~2_combout\ $end
$var wire 1 _! \clk_div_4hz|Equal0~8_combout\ $end
$var wire 1 `! \clk_div_4hz|Add0~31\ $end
$var wire 1 a! \clk_div_4hz|Add0~32_combout\ $end
$var wire 1 b! \clk_div_4hz|Add0~33\ $end
$var wire 1 c! \clk_div_4hz|Add0~34_combout\ $end
$var wire 1 d! \clk_div_4hz|s_divCounter~7_combout\ $end
$var wire 1 e! \clk_div_4hz|Add0~35\ $end
$var wire 1 f! \clk_div_4hz|Add0~36_combout\ $end
$var wire 1 g! \clk_div_4hz|s_divCounter~6_combout\ $end
$var wire 1 h! \clk_div_4hz|Add0~37\ $end
$var wire 1 i! \clk_div_4hz|Add0~38_combout\ $end
$var wire 1 j! \clk_div_4hz|s_divCounter~5_combout\ $end
$var wire 1 k! \clk_div_4hz|Add0~39\ $end
$var wire 1 l! \clk_div_4hz|Add0~40_combout\ $end
$var wire 1 m! \clk_div_4hz|s_divCounter~4_combout\ $end
$var wire 1 n! \clk_div_4hz|Add0~41\ $end
$var wire 1 o! \clk_div_4hz|Add0~42_combout\ $end
$var wire 1 p! \clk_div_4hz|s_divCounter~1_combout\ $end
$var wire 1 q! \clk_div_4hz|Add0~43\ $end
$var wire 1 r! \clk_div_4hz|Add0~44_combout\ $end
$var wire 1 s! \clk_div_4hz|Add0~45\ $end
$var wire 1 t! \clk_div_4hz|Add0~46_combout\ $end
$var wire 1 u! \clk_div_4hz|s_divCounter~0_combout\ $end
$var wire 1 v! \clk_div_4hz|Equal0~7_combout\ $end
$var wire 1 w! \clk_div_4hz|Equal0~9_combout\ $end
$var wire 1 x! \clk_div_4hz|Add0~47\ $end
$var wire 1 y! \clk_div_4hz|Add0~48_combout\ $end
$var wire 1 z! \clk_div_4hz|Add0~49\ $end
$var wire 1 {! \clk_div_4hz|Add0~50_combout\ $end
$var wire 1 |! \clk_div_4hz|Add0~51\ $end
$var wire 1 }! \clk_div_4hz|Add0~52_combout\ $end
$var wire 1 ~! \clk_div_4hz|Add0~53\ $end
$var wire 1 !" \clk_div_4hz|Add0~54_combout\ $end
$var wire 1 "" \clk_div_4hz|Add0~55\ $end
$var wire 1 #" \clk_div_4hz|Add0~56_combout\ $end
$var wire 1 $" \clk_div_4hz|Add0~57\ $end
$var wire 1 %" \clk_div_4hz|Add0~58_combout\ $end
$var wire 1 &" \clk_div_4hz|Add0~59\ $end
$var wire 1 '" \clk_div_4hz|Add0~60_combout\ $end
$var wire 1 (" \clk_div_4hz|Equal0~0_combout\ $end
$var wire 1 )" \clk_div_4hz|Equal0~1_combout\ $end
$var wire 1 *" \clk_div_4hz|Equal0~2_combout\ $end
$var wire 1 +" \clk_div_4hz|Equal0~3_combout\ $end
$var wire 1 ," \clk_div_4hz|Equal0~4_combout\ $end
$var wire 1 -" \clk_div_4hz|Equal0~11_combout\ $end
$var wire 1 ." \clk_div_4hz|Add0~26_combout\ $end
$var wire 1 /" \clk_div_4hz|s_divCounter~3_combout\ $end
$var wire 1 0" \clk_div_4hz|clkOut~1_combout\ $end
$var wire 1 1" \clk_div_4hz|clkOut~0_combout\ $end
$var wire 1 2" \clk_div_4hz|clkOut~2_combout\ $end
$var wire 1 3" \clk_div_4hz|Equal0~6_combout\ $end
$var wire 1 4" \clk_div_4hz|clkOut~3_combout\ $end
$var wire 1 5" \clk_div_4hz|clkOut~q\ $end
$var wire 1 6" \clk_div_4hz|clkOut~clkctrl_outclk\ $end
$var wire 1 7" \SW[0]~input_o\ $end
$var wire 1 8" \KEY[1]~input_o\ $end
$var wire 1 9" \s_units_cnt|s_value[0]~0_combout\ $end
$var wire 1 :" \s_units_cnt|termCnt~0_combout\ $end
$var wire 1 ;" \clk_enb_gen|s_counter[0]~1_combout\ $end
$var wire 1 <" \SW[1]~input_o\ $end
$var wire 1 =" \clk_enb_gen|Add0~0_combout\ $end
$var wire 1 >" \s_units_cnt|s_value[3]~1_combout\ $end
$var wire 1 ?" \s_units_cnt|s_value~2_combout\ $end
$var wire 1 @" \s_units_cnt|Add0~0_combout\ $end
$var wire 1 A" \s_units_cnt|s_value~3_combout\ $end
$var wire 1 B" \s_units_decod|Mux4~1_combout\ $end
$var wire 1 C" \s_units_cnt|Add0~1_combout\ $end
$var wire 1 D" \s_units_cnt|s_value~4_combout\ $end
$var wire 1 E" \s_units_decod|Mux6~0_combout\ $end
$var wire 1 F" \s_units_decod|Mux5~0_combout\ $end
$var wire 1 G" \s_units_decod|Mux4~0_combout\ $end
$var wire 1 H" \s_units_decod|Mux3~0_combout\ $end
$var wire 1 I" \s_units_decod|Mux2~0_combout\ $end
$var wire 1 J" \s_units_decod|Mux1~0_combout\ $end
$var wire 1 K" \s_units_decod|Mux0~0_combout\ $end
$var wire 1 L" \s_tens_cnt|termCnt~0_combout\ $end
$var wire 1 M" \s_units_cnt|termCnt~1_combout\ $end
$var wire 1 N" \s_units_cnt|termCnt~q\ $end
$var wire 1 O" \clk_enb_gen|clkEnable~0_combout\ $end
$var wire 1 P" \s_tens_cnt|s_value[3]~0_combout\ $end
$var wire 1 Q" \s_tens_cnt|Add0~1_combout\ $end
$var wire 1 R" \s_tens_cnt|s_value~3_combout\ $end
$var wire 1 S" \s_tens_decod|Mux4~1_combout\ $end
$var wire 1 T" \s_tens_cnt|s_value~1_combout\ $end
$var wire 1 U" \s_tens_cnt|Add0~0_combout\ $end
$var wire 1 V" \s_tens_cnt|s_value~2_combout\ $end
$var wire 1 W" \s_tens_decod|Mux6~0_combout\ $end
$var wire 1 X" \s_tens_decod|Mux5~0_combout\ $end
$var wire 1 Y" \s_tens_decod|Mux4~0_combout\ $end
$var wire 1 Z" \s_tens_decod|Mux3~0_combout\ $end
$var wire 1 [" \s_tens_decod|Mux2~0_combout\ $end
$var wire 1 \" \s_tens_decod|Mux1~0_combout\ $end
$var wire 1 ]" \s_tens_decod|Mux0~0_combout\ $end
$var wire 1 ^" \m_units_cnt|s_value~2_combout\ $end
$var wire 1 _" \KEY[2]~input_o\ $end
$var wire 1 `" \s_tens_cnt|termCnt~1_combout\ $end
$var wire 1 a" \s_tens_cnt|termCnt~q\ $end
$var wire 1 b" \s_mUnitsEnb~0_combout\ $end
$var wire 1 c" \m_units_cnt|s_value[3]~3_combout\ $end
$var wire 1 d" \m_units_cnt|s_value~4_combout\ $end
$var wire 1 e" \m_units_cnt|Add0~0_combout\ $end
$var wire 1 f" \m_units_cnt|s_value~6_combout\ $end
$var wire 1 g" \m_units_decod|Mux4~1_combout\ $end
$var wire 1 h" \m_units_cnt|s_value[3]~5_combout\ $end
$var wire 1 i" \m_units_cnt|s_value~7_combout\ $end
$var wire 1 j" \m_units_decod|Mux6~0_combout\ $end
$var wire 1 k" \m_units_decod|Mux5~0_combout\ $end
$var wire 1 l" \m_units_decod|Mux4~0_combout\ $end
$var wire 1 m" \m_units_decod|Mux3~0_combout\ $end
$var wire 1 n" \m_units_decod|Mux2~0_combout\ $end
$var wire 1 o" \m_units_decod|Mux1~0_combout\ $end
$var wire 1 p" \m_units_decod|Mux0~0_combout\ $end
$var wire 1 q" \m_tens_cnt|s_value~8_combout\ $end
$var wire 1 r" \m_units_cnt|termCnt~0_combout\ $end
$var wire 1 s" \m_units_cnt|termCnt~q\ $end
$var wire 1 t" \m_tens_cnt|s_value[3]~9_combout\ $end
$var wire 1 u" \m_tens_cnt|s_value[3]~10_combout\ $end
$var wire 1 v" \m_tens_cnt|s_value~13_combout\ $end
$var wire 1 w" \m_tens_cnt|Add0~0_combout\ $end
$var wire 1 x" \m_tens_cnt|s_value~12_combout\ $end
$var wire 1 y" \m_tens_decod|Mux4~1_combout\ $end
$var wire 1 z" \m_tens_cnt|s_value~11_combout\ $end
$var wire 1 {" \m_tens_decod|Mux6~0_combout\ $end
$var wire 1 |" \m_tens_decod|Mux5~0_combout\ $end
$var wire 1 }" \m_tens_decod|Mux4~0_combout\ $end
$var wire 1 ~" \m_tens_decod|Mux3~0_combout\ $end
$var wire 1 !# \m_tens_decod|Mux2~0_combout\ $end
$var wire 1 "# \m_tens_decod|Mux1~0_combout\ $end
$var wire 1 ## \m_tens_decod|Mux0~0_combout\ $end
$var wire 1 $# \s_units_cnt|s_value\ [3] $end
$var wire 1 %# \s_units_cnt|s_value\ [2] $end
$var wire 1 &# \s_units_cnt|s_value\ [1] $end
$var wire 1 '# \s_units_cnt|s_value\ [0] $end
$var wire 1 (# \s_tens_cnt|s_value\ [3] $end
$var wire 1 )# \s_tens_cnt|s_value\ [2] $end
$var wire 1 *# \s_tens_cnt|s_value\ [1] $end
$var wire 1 +# \s_tens_cnt|s_value\ [0] $end
$var wire 1 ,# \m_units_cnt|s_value\ [3] $end
$var wire 1 -# \m_units_cnt|s_value\ [2] $end
$var wire 1 .# \m_units_cnt|s_value\ [1] $end
$var wire 1 /# \m_units_cnt|s_value\ [0] $end
$var wire 1 0# \m_tens_cnt|s_value\ [3] $end
$var wire 1 1# \m_tens_cnt|s_value\ [2] $end
$var wire 1 2# \m_tens_cnt|s_value\ [1] $end
$var wire 1 3# \m_tens_cnt|s_value\ [0] $end
$var wire 1 4# \clk_enb_gen|s_counter\ [1] $end
$var wire 1 5# \clk_enb_gen|s_counter\ [0] $end
$var wire 1 6# \clk_div_4hz|s_divCounter\ [30] $end
$var wire 1 7# \clk_div_4hz|s_divCounter\ [29] $end
$var wire 1 8# \clk_div_4hz|s_divCounter\ [28] $end
$var wire 1 9# \clk_div_4hz|s_divCounter\ [27] $end
$var wire 1 :# \clk_div_4hz|s_divCounter\ [26] $end
$var wire 1 ;# \clk_div_4hz|s_divCounter\ [25] $end
$var wire 1 <# \clk_div_4hz|s_divCounter\ [24] $end
$var wire 1 =# \clk_div_4hz|s_divCounter\ [23] $end
$var wire 1 ># \clk_div_4hz|s_divCounter\ [22] $end
$var wire 1 ?# \clk_div_4hz|s_divCounter\ [21] $end
$var wire 1 @# \clk_div_4hz|s_divCounter\ [20] $end
$var wire 1 A# \clk_div_4hz|s_divCounter\ [19] $end
$var wire 1 B# \clk_div_4hz|s_divCounter\ [18] $end
$var wire 1 C# \clk_div_4hz|s_divCounter\ [17] $end
$var wire 1 D# \clk_div_4hz|s_divCounter\ [16] $end
$var wire 1 E# \clk_div_4hz|s_divCounter\ [15] $end
$var wire 1 F# \clk_div_4hz|s_divCounter\ [14] $end
$var wire 1 G# \clk_div_4hz|s_divCounter\ [13] $end
$var wire 1 H# \clk_div_4hz|s_divCounter\ [12] $end
$var wire 1 I# \clk_div_4hz|s_divCounter\ [11] $end
$var wire 1 J# \clk_div_4hz|s_divCounter\ [10] $end
$var wire 1 K# \clk_div_4hz|s_divCounter\ [9] $end
$var wire 1 L# \clk_div_4hz|s_divCounter\ [8] $end
$var wire 1 M# \clk_div_4hz|s_divCounter\ [7] $end
$var wire 1 N# \clk_div_4hz|s_divCounter\ [6] $end
$var wire 1 O# \clk_div_4hz|s_divCounter\ [5] $end
$var wire 1 P# \clk_div_4hz|s_divCounter\ [4] $end
$var wire 1 Q# \clk_div_4hz|s_divCounter\ [3] $end
$var wire 1 R# \clk_div_4hz|s_divCounter\ [2] $end
$var wire 1 S# \clk_div_4hz|s_divCounter\ [1] $end
$var wire 1 T# \clk_div_4hz|s_divCounter\ [0] $end
$var wire 1 U# \m_tens_decod|ALT_INV_Mux0~0_combout\ $end
$var wire 1 V# \m_units_decod|ALT_INV_Mux0~0_combout\ $end
$var wire 1 W# \s_tens_decod|ALT_INV_Mux0~0_combout\ $end
$var wire 1 X# \s_units_decod|ALT_INV_Mux0~0_combout\ $end
$upscope $end
$upscope $end
$enddefinitions $end
#0
$dumpvars
0!
0D
1E
xF
1G
1H
1I
1J
1K
1L
0O
xx
0y
0z
0{
0|
1}
0~
0!!
0"!
1#!
0$!
0%!
1&!
0'!
0(!
0)!
0*!
0+!
0,!
1-!
0.!
0/!
00!
11!
02!
03!
14!
05!
06!
07!
08!
09!
1:!
0;!
0<!
1=!
0>!
0?!
0@!
1A!
0B!
0C!
0D!
0E!
1F!
0G!
0H!
0I!
0J!
0K!
1L!
0M!
0N!
0O!
1P!
0Q!
0R!
0S!
0T!
0U!
1V!
0W!
0X!
0Y!
1Z!
0[!
0\!
0]!
0^!
0_!
1`!
0a!
0b!
0c!
0d!
1e!
0f!
0g!
0h!
0i!
0j!
1k!
0l!
0m!
0n!
0o!
0p!
1q!
0r!
0s!
0t!
0u!
0v!
0w!
1x!
0y!
0z!
0{!
1|!
0}!
0~!
0!"
1""
0#"
0$"
0%"
1&"
0'"
1("
0)"
0*"
0+"
0,"
0-"
0."
0/"
00"
01"
02"
03"
04"
05"
06"
17"
x8"
09"
0:"
1;"
1<"
1="
0>"
0?"
1@"
0A"
0B"
0C"
0D"
0E"
0F"
0G"
0H"
1I"
0J"
1K"
0L"
0M"
0N"
0O"
0P"
1Q"
0R"
0S"
0T"
0U"
0V"
0W"
1X"
0Y"
0Z"
1["
0\"
1]"
0^"
x_"
0`"
0a"
xb"
0c"
0d"
1e"
0f"
0g"
0h"
0i"
0j"
0k"
0l"
0m"
1n"
0o"
1p"
0q"
0r"
0s"
1t"
0u"
0v"
1w"
0x"
0y"
0z"
0{"
1|"
0}"
0~"
1!#
0"#
1##
0U#
0V#
0W#
0X#
1B
1C
1M
1N
xP
xQ
xR
0S
0T
1U
0V
0W
0X
0Y
0Z
0[
1\
0]
0^
1_
0`
0a
0b
1c
0d
0e
0f
0g
0h
0i
1j
0k
0l
1m
0n
0o
0$#
0%#
0&#
0'#
0(#
0)#
0*#
0+#
0,#
0-#
0.#
0/#
00#
01#
02#
03#
04#
05#
06#
07#
08#
09#
0:#
0;#
0<#
0=#
0>#
0?#
0@#
0A#
0B#
0C#
0D#
0E#
0F#
0G#
0H#
0I#
0J#
0K#
0L#
0M#
0N#
0O#
0P#
0Q#
0R#
0S#
0T#
1p
1q
1r
0s
1t
1u
1v
0w
0"
0#
1$
0%
0&
0'
0(
0)
0*
1+
0,
0-
1.
0/
00
01
12
03
04
05
06
07
08
19
0:
0;
1<
0=
x>
x?
x@
0A
$end
#5000
0B
0M
0<"
1>"
1P"
1c"
0t"
1u"
#10000
1B
1!
0C
0N
1M
1O
18!
1<"
07"
1s
x9"
1^"
1h"
1q"
xu"
0>"
0P"
0c"
1t"
0u"
x:"
xL"
19!
1T#
0:!
1;!
1<!
#15000
0B
0M
0<"
1>"
xP"
xc"
#20000
0!
1C
0O
1N
17"
08!
0s
09"
0^"
1c"
0h"
0q"
0t"
1u"
0:"
0L"
1P"
09!
#25000
0C
0N
07"
x9"
1^"
xc"
1h"
1q"
1t"
xu"
0u"
x:"
xL"
xP"
#30000
1!
1B
1O
1M
1<"
18!
1s
0>"
0P"
0c"
19!
0T#
1S#
0<!
0=!
1:!
0;!
1<!
1=!
1>!
0>!
#35000
1C
1N
17"
09"
0^"
0h"
0q"
0:"
0L"
#40000
0C
0!
0N
0O
08!
07"
0s
x9"
1^"
1h"
1q"
x:"
xL"
09!
#45000
1C
0B
1N
0M
0<"
17"
09"
0^"
0h"
0q"
1>"
xP"
1c"
0t"
1u"
0:"
0L"
1P"
#50000
0C
1!
0N
1O
18!
07"
1s
x9"
1^"
xc"
1h"
1q"
1t"
xu"
0u"
x:"
xL"
xP"
19!
1T#
0:!
1;!
1I!
0<!
0=!
1>!
#55000
1C
1B
1N
1M
1<"
17"
09"
0^"
0h"
0q"
0>"
0P"
0c"
0:"
0L"
#60000
0!
0O
08!
0s
09!
#65000
0C
0B
0N
0M
0<"
07"
x9"
1^"
1h"
1q"
1>"
1P"
xc"
x:"
xL"
xP"
#70000
1B
1!
1M
1O
18!
1<"
1s
0>"
0P"
0c"
19!
0T#
0S#
1R#
0>!
1?!
1<!
1=!
1:!
0;!
0I!
0<!
1>!
0?!
1@!
0@!
#75000
0B
1C
1N
0M
0<"
17"
09"
0^"
0h"
0q"
1>"
xP"
1c"
0t"
1u"
0:"
0L"
1P"
#80000
1B
0!
1M
0O
08!
1<"
0s
0>"
0P"
0c"
1t"
0u"
09!
#85000
0B
0C
0N
0M
0<"
07"
x9"
1^"
1h"
1q"
1>"
1P"
xc"
x:"
xL"
xP"
#90000
1!
1O
18!
1s
19!
1T#
0:!
1;!
1<!
#95000
1B
1M
1<"
0>"
0P"
0c"
#100000
0!
0O
08!
0s
09!
#105000
0B
0M
0<"
1>"
xP"
xc"
#110000
1!
1C
1O
1N
17"
18!
1s
09"
0^"
1c"
0h"
0q"
0t"
1u"
0:"
0L"
1P"
19!
0T#
1S#
0<!
0=!
1:!
0;!
1<!
1=!
0>!
1?!
1@!
1>!
0?!
0@!
#120000
0!
0O
08!
0s
09!
#130000
1!
1B
1O
1M
1<"
18!
1s
0>"
0P"
0c"
1t"
0u"
19!
1T#
0:!
1;!
1I!
0<!
0=!
0>!
1?!
1@!
#135000
0B
0M
0<"
1>"
1P"
1c"
0t"
1u"
#140000
0!
0O
08!
0s
09!
#145000
0C
0N
07"
x9"
1^"
xc"
1h"
1q"
1t"
xu"
0u"
x:"
xL"
xP"
#150000
1!
1B
1O
1M
1<"
18!
1s
0>"
0P"
0c"
19!
0T#
0S#
0R#
1Q#
0@!
0A!
1>!
0?!
1<!
1=!
1:!
0;!
0I!
0<!
0>!
1@!
1A!
1B!
0B!
#160000
0!
1C
0O
1N
17"
08!
0s
09"
0^"
0h"
0q"
0:"
0L"
09!
#165000
0C
0N
07"
x9"
1^"
1h"
1q"
x:"
xL"
#170000
1C
1!
0B
1N
0M
1O
18!
0<"
17"
1s
09"
0^"
0h"
0q"
1>"
xP"
1c"
0t"
1u"
0:"
0L"
1P"
19!
1T#
0:!
1;!
1<!
#175000
1B
1M
1<"
0>"
0P"
0c"
1t"
0u"
#180000
0B
0!
0M
0O
08!
0<"
0s
1>"
1P"
1c"
0t"
1u"
09!
#185000
1B
1M
1<"
0>"
0P"
0c"
1t"
0u"
#190000
0B
1!
0M
1O
18!
0<"
1s
1>"
1P"
1c"
0t"
1u"
19!
0T#
1S#
0<!
0=!
1:!
0;!
1<!
1=!
1>!
0>!
#195000
1B
1M
1<"
0>"
0P"
0c"
1t"
0u"
#200000
0!
0O
08!
0s
09!
#205000
0B
0M
0<"
1>"
1P"
1c"
0t"
1u"
#210000
1!
0C
1O
0N
07"
18!
1s
x9"
1^"
xc"
1h"
1q"
1t"
xu"
0u"
x:"
xL"
xP"
19!
1T#
0:!
1;!
1I!
0<!
0=!
1>!
#215000
1C
1B
1N
1M
1<"
17"
09"
0^"
0h"
0q"
0>"
0P"
0c"
0:"
0L"
#220000
0!
0O
08!
0s
09!
#225000
0C
0N
07"
x9"
1^"
1h"
1q"
x:"
xL"
#230000
1!
1O
18!
1s
19!
0T#
0S#
1R#
0>!
1?!
1H!
1<!
1=!
1:!
0;!
0I!
0<!
1>!
0?!
0@!
0A!
1B!
1@!
1A!
0B!
#235000
1C
0B
1N
0M
0<"
17"
09"
0^"
0h"
0q"
1>"
xP"
1c"
0t"
1u"
0:"
0L"
1P"
#240000
0C
0!
0N
0O
08!
07"
0s
x9"
1^"
xc"
1h"
1q"
1t"
xu"
0u"
x:"
xL"
xP"
09!
#245000
1C
1B
1N
1M
1<"
17"
09"
0^"
0h"
0q"
0>"
0P"
0c"
0:"
0L"
#250000
0B
1!
0M
1O
18!
0<"
1s
1>"
1P"
1c"
0t"
1u"
19!
1T#
0:!
1;!
1<!
#255000
0C
0N
07"
x9"
1^"
xc"
1h"
1q"
1t"
xu"
0u"
x:"
xL"
xP"
#260000
0!
0O
08!
0s
09!
#265000
1C
1B
1N
1M
1<"
17"
09"
0^"
0h"
0q"
0>"
0P"
0c"
0:"
0L"
#270000
0C
1!
0N
1O
18!
07"
1s
x9"
1^"
1h"
1q"
x:"
xL"
19!
0T#
1S#
0<!
0=!
1:!
0;!
1<!
1=!
0>!
1?!
0@!
0A!
1>!
0?!
1@!
1A!
1B!
0B!
#275000
0B
0M
0<"
1>"
xP"
xc"
#280000
1C
0!
1N
0O
08!
17"
0s
09"
0^"
1c"
0h"
0q"
0t"
1u"
0:"
0L"
1P"
09!
#285000
0C
1B
0N
1M
1<"
07"
x9"
1^"
1h"
1q"
xu"
0>"
0P"
0c"
1t"
0u"
x:"
xL"
#290000
1!
1O
18!
1s
19!
1T#
0:!
1;!
1I!
0<!
0=!
0>!
1?!
0@!
0A!
1B!
#295000
0B
0M
0<"
1>"
xP"
xc"
#300000
1B
0!
1M
0O
08!
1<"
0s
0>"
0P"
0c"
09!
#305000
0B
0M
0<"
1>"
xP"
xc"
#310000
1B
1!
1C
1N
1M
1O
18!
1<"
17"
1s
09"
0^"
0h"
0q"
0>"
0P"
0c"
0:"
0L"
19!
0T#
0S#
0R#
0Q#
1P#
0B!
1C!
1@!
1A!
1>!
0?!
0H!
1<!
1=!
1:!
0;!
0I!
0<!
0>!
0@!
1B!
0C!
1D!
1E!
0D!
0E!
#315000
0B
0M
0<"
1>"
1P"
1c"
0t"
1u"
#320000
1B
0!
0C
0N
1M
0O
08!
1<"
07"
0s
x9"
1^"
1h"
1q"
xu"
0>"
0P"
0c"
1t"
0u"
x:"
xL"
09!
#325000
0B
1C
1N
0M
0<"
17"
09"
0^"
0h"
0q"
1>"
xP"
1c"
0t"
1u"
0:"
0L"
1P"
#330000
1!
1O
18!
1s
19!
1T#
0:!
1;!
1<!
#335000
0C
0N
07"
x9"
1^"
xc"
1h"
1q"
1t"
xu"
0u"
x:"
xL"
xP"
#340000
1C
0!
1B
1N
1M
0O
08!
1<"
17"
0s
09"
0^"
0h"
0q"
0>"
0P"
0c"
0:"
0L"
09!
